[
	{"apidoc": "0.16.x"},
	{"apidoc": "0.17.x"},
	{
		"@jbboehr/require-handlebars-plugin": "2.0.x",
		"@types/async": "2.0.x",
		"@types/autosize": "3.0.x",
		"@types/backbone": "1.3.x",
		"@types/bootstrap": "3.3.x",
		"@types/bootstrap-select": "1.11.x",
		"@types/bootstrap-slider": "4.8.x",
		"@types/chart.js": "2.6.x",
		"@types/clipboard": "1.5.x",
		"@types/eonasdan-bootstrap-datetimepicker": "4.17.x",
		"@types/es6-shim": "0.31.x",
		"@types/fb": "0.0.x",
		"@types/handlebars": "4.0.x",
		"@types/jquery": "1.10.x",
		"@types/js-cookie": "2.0.x",
		"@types/jssha": "0.0.x",
		"@types/mixpanel": "0.0.x",
		"@types/requirejs": "2.1.x",
		"@types/sockjs-client": "1.0.x",
		"@types/stripe": "2.0.x",
		"@types/stripe-checkout": "0.0.x",
		"@types/underscore": "1.8.x",
		"@types/videojs": "5.16.x",
		"async": "2.1.x",
		"autosize": "3.0.x",
		"backbone": "1.3.x",
		"backbone-hotkeys": "1.2.x",
		"backbone.marionette": "3.1.x",
		"backbone.radio": "2.0.x",
		"blueimp-file-upload": "9.13.x",
		"bootstrap": "3.3.x",
		"bootstrap-select": "1.11.x",
		"bootstrap-slider": "9.3.x",
		"chai": "3.5.x",
		"chart.js": "2.6.x",
		"clipboard": "1.5.x",
		"codemirror": "5.4.x",
		"cropper": "2.3.x",
		"crosstab": "0.2.x",
		"csslint": "0.10.x",
		"csso": "2.3.x",
		"dashjs": "2.6.x",
		"eonasdan-bootstrap-datetimepicker": "4.17.x",
		"es5-shim": "4.4.x",
		"es6-shim": "0.34.x",
		"fingerprintjs2": "1.4.x",
		"grunt": "1.0.x",
		"grunt-cli": "1.2.x",
		"grunt-contrib-csslint": "0.5.x",
		"grunt-contrib-jshint": "0.12.x",
		"grunt-karma": "0.12.x",
		"gulp": "3.9.x",
		"hammerjs": "2.0.x",
		"handlebars": "4.0.x",
		"jquery-hotkeys": "0.2.x",
		"jquery-lazyload": "1.9.x",
		"jquery-placeholder": "2.3.x",
		"js-cookie": "2.1.x",
		"jshint": "2.9.x",
		"jssha": "2.2.x",
		"karma": "1.6.x",
		"karma-chai": "0.1.x",
		"karma-chrome-launcher": "2.0.x",
		"karma-firefox-launcher": "1.0.x",
		"karma-mocha": "1.3.x",
		"karma-requirejs": "1.1.x",
		"mocha": "3.2.x",
		"moment": "2.15.x",
		"notifyjs": "1.3.x",
		"player.js": "0.0.x",
		"raven-js": "3.8.x",
		"require-css": "0.1.x",
		"requirejs": "2.3.x",
		"requirejs-plugins": "1.0.x",
		"requirejs-text": "2.0.x",
		"sockjs-client": "1.1.x",
		"tabex": "1.0.x",
		"tslib": "1.6.x",
		"tslint": "5.1.x",
		"typescript": "2.3.x",
		"underscore": "1.8.x",
		"video.js": "5.11.9",
		"videojs-contrib-dash": "2.8.x",
		"videojs-persistvolume": "0.1.x",
		"videojs-resolution-switcher": "0.4.x",
		"videojs-youtube": "2.1.x"
	}
]
